module gitlab.com/gitlab-org/fleeting/taskscaler

go 1.21

require (
	github.com/hashicorp/go-hclog v1.5.0
	github.com/stretchr/testify v1.8.4
	gitlab.com/gitlab-org/fleeting/fleeting v0.0.0-20240429092009-80a1949a176e
	golang.org/x/time v0.5.0
)

require (
	github.com/davecgh/go-spew v1.1.1 // indirect
	github.com/fatih/color v1.16.0 // indirect
	github.com/golang/protobuf v1.5.3 // indirect
	github.com/hashicorp/go-plugin v1.6.0 // indirect
	github.com/hashicorp/yamux v0.1.1 // indirect
	github.com/mattn/go-colorable v0.1.13 // indirect
	github.com/mattn/go-isatty v0.0.20 // indirect
	github.com/mitchellh/go-testing-interface v1.14.1 // indirect
	github.com/oklog/run v1.1.0 // indirect
	github.com/pmezard/go-difflib v1.0.0 // indirect
	github.com/stretchr/objx v0.5.1 // indirect
	golang.org/x/crypto v0.17.0 // indirect
	golang.org/x/net v0.18.0 // indirect
	golang.org/x/sys v0.15.0 // indirect
	golang.org/x/text v0.14.0 // indirect
	google.golang.org/genproto/googleapis/rpc v0.0.0-20231120223509-83a465c0220f // indirect
	google.golang.org/grpc v1.59.0 // indirect
	google.golang.org/protobuf v1.31.0 // indirect
	gopkg.in/yaml.v3 v3.0.1 // indirect
)
